{
    "name": "DashBoard",
    "alias": "dashboard",
    "description": "",
    "keywords": [],
    "priority": 0,
    "providers": [
        "Modules\\DashBoard\\app\\Providers\\DashBoardServiceProvider"
    ],
    "files": []
}
