{
    "name": "Perfiles",
    "alias": "perfiles",
    "description": "",
    "keywords": [],
    "priority": 0,
    "providers": [
        "Modules\\Perfiles\\app\\Providers\\PerfilesServiceProvider"
    ],
    "files": []
}
