{
    "name": "Votos",
    "alias": "votos",
    "description": "",
    "keywords": [],
    "priority": 0,
    "providers": [
        "Modules\\Votos\\app\\Providers\\VotosServiceProvider"
    ],
    "files": []
}
